{
  "basepath": {
    "mount": "/occam",
    "separator": "/",
    "local": "/local"
  },
  "build": {
    "command": "sh build.sh"
  },
  "provides": {
    "environment": "ubuntu:14.04",
    "architecture": "x86-64"
  },
  "id": "2ebf1ebc-66e4-11e5-a4f5-001fd05bb228",
  "type": "docker-environment",
  "environment": "docker",
  "name": "ubuntu:14.04",
  "install": [
    {
      "source": "ubuntu:14.10",
      "revision": "4d030318fb297a4796fb69e568c94c028c0c305d",
      "name": "Ubuntu 14.10 Docker Image",
      "id": "d9ce2acc-5c4a-11e5-bc31-001fd05bb228",
      "type": "docker-container"
    }
  ],
  "architecture": "x86-64"
}
